[
  {
    "objectCode":"GREETING",
    "title":"How are you doing today?",
    "playerResponseCodes":["GOOD","BAD"]
  },
  {
    "objectCode":"FOUND_EVERYTHING_QUESTION",
    "title":"Did you find everything ok?",
    "playerResponseCodes":["YES","NO"]
  },
  {
    "objectCode":"PRODUCE_SPECIAL",
    "title":"Produce is on special, would you like some?",
    "playerResponseCodes":["YES","NO"]
  },
  {
    "objectCode":"MEAT_SPECIAL",
    "title":"Meat is on special, would you like some?",
    "playerResponseCodes":[]
  },
  {
    "objectCode":"CASH_CREDIT",
    "title":"Will that be cash or credit?",
    "playerResponseCodes":["CASH","CREDIT"]
  },
  {
    "objectCode":"ACCUSATION",
    "title":"What's that in your pocket?",
    "playerResponseCodes":["CELL_PHONE","NOTHING","UNPAID_MERCHANDISE"]
  }
]